<?xml version="1.0" encoding="utf-8"?>
<svg version="1.0" id="Camada_1" xmlns="http://www.w3.org/2000/svg" xmlns:xlink="http://www.w3.org/1999/xlink" x="0px" y="0px"
	 viewBox="0 0 500 500" xml:space="preserve" style="background-color:#000000">

<g transform="translate(0,0)">
	<linearGradient id="grad2" x1="0%" y1="0%" x2="0%" y2="100%">
  	<stop offset="0%" style="stop-color:#0099cc;stop-opacity:1" />
  	<stop offset="100%" style="stop-color:#007399;stop-opacity:1" />
  </linearGradient>
	<rect rx="20" ry="20" width="275" height="125" style="stroke:black;" fill="url(#grad2)" />
	<text transform="translate(100, 100)" font-size="28" fill="#000" font-family="sans-serif">Teste</text>
	<image width="200px" height="200px" xlink:href="%image1%"/>
</g>

</svg>
